#,t,RPM,Spark Front,Spark Rear,Fuel Front,Fuel Rear,Load,Batt. Volt.,Engine Temp.,Air Temp.,O2,Batt. Corr.,WarmUpEnrichment,AirTemp Corr.,Accel Corr.,Decel Corr.,WideOpenThrottle Corr.,Idle Corr.,OpenLoop Corr.,AdaptiveFuelValue,ExchaustGasO2 Corr.,Baro ADC,BankAngleSensor Volt.,Error Byte 0,Error Byte 1,Error Byte 2,Error Byte 3,Error Byte 4,Rides,Fan Duty,VehicleSpeedSensor,Speed/RPM Ratio
1,0.780000,0,0.000000,0.000000,31,31,16,12.360000,18.299999,20.000000,0.000000,0.730170,161.699997,102.000000,0.000000,100.000000,100.000000,100.000000,100.000000,110.000000,110.000000,0,1.212224,0,0,0,0,0,47,0,0,0
2,0.980000,0,0.000000,0.000000,31,31,16,12.360000,18.299999,20.000000,0.000000,0.730170,161.699997,102.000000,0.000000,100.000000,100.000000,100.000000,100.000000,110.000000,110.000000,0,1.212224,0,0,0,0,0,47,0,0,0
3,0.180000,0,0.000000,0.000000,31,31,16,12.360000,18.299999,20.000000,0.000000,0.730170,161.699997,102.000000,0.000000,100.000000,100.000000,100.000000,100.000000,110.000000,110.000000,0,1.212224,0,0,0,0,0,47,0,0,0
4,0.380000,0,0.000000,0.000000,31,31,16,12.320000,18.299999,20.000000,0.000000,0.730170,161.699997,102.000000,0.000000,100.000000,100.000000,100.000000,100.000000,110.000000,110.000000,0,1.212224,0,0,0,0,0,47,0,0,0
5,0.580000,0,0.000000,0.000000,31,31,16,12.320000,18.299999,20.000000,0.000000,0.730170,161.699997,102.000000,0.000000,100.000000,100.000000,100.000000,100.000000,110.000000,110.000000,0,1.212224,0,0,0,0,0,47,0,0,0
